HW2
…
Warning: Returning more (or less) than 1 row per `summarise()` group was deprecated in
dplyr 1.1.0.
ℹ Please use `reframe()` instead.
ℹ When switching from `summarise()` to `reframe()`, remember that `reframe()`
  always returns an ungrouped data frame and adjust accordingly.

`summarise()` has grouped output by 'k'. You can override using the `.groups`
argument.

sorted_avg_mse <- avg_mse %>%
  arrange(avg_MSE)

print(sorted_avg_mse)

# A tibble: 380 × 3
# Groups:   k [38]
       k avg_MSE   edf
   <int>   <dbl> <dbl>
 1    13   2144.  7.69
 2    13   2144.  7.69
 3    13   2144.  7.69
 4    13   2144.  7.69
 5    13   2144.  7.69
 6    13   2144.  7.69
 7    13   2144.  7.69
 8    13   2144.  7.69
 9    13   2144.  7.69
10    13   2144.  7.69
# ℹ 370 more rows
…
f. Did cross-validation work as intended?

Based on the plots from e, does it appear that cross-validation worked as intended? How sensitive is the choice of \(k\) on the resulting test MSE?

Solution

Yes, it appears to be working as intended. The cross-validation led me to a k value of 3 and the “real data” seems to support that same conclusion. The average MSE changes by a fair magnitude between values (especially lower values of k).

print(summary_results_test)

# A tibble: 380 × 4
# Groups:   k [38]
       k avg_MSE stderr_MSE    edf
   <int>   <dbl>      <dbl>  <dbl>
 1     3   2196.       283. 16667.
 2     3   2196.       283. 16667.
 3     3   2196.       283. 16667.
 4     3   2196.       283. 16667.
 5     3   2196.       283. 16667.
 6     3   2196.       283. 16667.
 7     3   2196.       283. 16667.
 8     3   2196.       283. 16667.
 9     3   2196.       283. 16667.
10     3   2196.       283. 16667.
# ℹ 370 more rows

print(summary_RESULTS)

# A tibble: 38 × 3
       k avg_MSE stderr_MSE
   <int>   <dbl>      <dbl>
 1     3   2178.       243.
 2     4   2443.       246.
 3     5   2461.       135.
 4     6   2186.       201.
 5     7   2395.       179.
 6     8   2541.       194.
 7     9   2303.       141.
 8    10   2469.       174.
 9    11   2416.       149.
10    12   2253.       164.
# ℹ 28 more rows
